super/01.txt 50
super/02.txt 50
super/03.txt 50
super/04.txt 50
super/05.txt 50
super/06.txt 50
super/07.txt 50
super/08.txt 50
super/09.txt 50
super/10.txt 50
super/11.txt 50
super/12.txt 50
super/13.txt 50
super/14.txt 50
super/15.txt 50
super/16.txt 50
super/17.txt 50
super/18.txt 50
